<?xml version="1.0" encoding="utf-8"?>
<!-- Svg Vector Icons : http://www.onlinewebfonts.com/icon -->
<!DOCTYPE svg PUBLIC "-//W3C//DTD SVG 1.1//EN" "http://www.w3.org/Graphics/SVG/1.1/DTD/svg11.dtd">
<svg version="1.1" xmlns="http://www.w3.org/2000/svg" xmlns:xlink="http://www.w3.org/1999/xlink" x="0px" y="0px" viewBox="0 0 1000 1000" enable-background="new 0 0 1000 1000" xml:space="preserve">
<metadata> Svg Vector Icons : http://www.onlinewebfonts.com/icon </metadata>
<g><path fill="#1E2939" d="M500,321.8c-24.5,0-44.5,20-44.5,44.5l22.3,245c0,13.4,8.9,22.3,22.3,22.3c13.4,0,22.3-8.9,22.3-22.3l22.3-245C544.5,341.9,524.5,321.8,500,321.8z M500,678.2c-24.5,0-44.5,20-44.5,44.5s20,44.5,44.5,44.5c24.5,0,44.5-20,44.5-44.5S524.5,678.2,500,678.2z M978.9,767.3L578,143.6c0,0-20-44.5-78-44.5c-53.5,0-78,44.5-78,44.5L21.1,767.3c0,0-11.1,15.6-11.1,44.5c0,49,40.1,89.1,89.1,89.1h801.8c49,0,89.1-40.1,89.1-89.1C990,780.6,978.9,767.3,978.9,767.3z M900.9,856.4H99.1c-24.5,0-44.5-20-44.5-44.5c0-8.9,2.2-15.6,2.2-17.8c0,0,0,0,2.2-2.2l400.9-623.6l2.2-2.2c0,0,13.4-22.3,37.9-22.3c26.7,0,35.6,17.8,37.9,20c0,2.2,2.2,2.2,2.2,6.7L941,794l2.2,2.2c0,2.2,2.2,6.7,2.2,17.8C945.5,836.3,925.4,856.4,900.9,856.4z" stroke="#1E2939" stroke-width="3"/></g>
</svg>
