<svg width="141" height="186" xmlns="http://www.w3.org/2000/svg">
 <!-- Created with Method Draw - http://github.com/duopixel/Method-Draw/ -->

 <g>
  <title>background</title>
  <rect fill="none" id="canvas_background" height="188" width="143" y="-1" x="-1"/>
  <g display="none" overflow="visible" y="0" x="0" height="100%" width="100%" id="canvasGrid">
   <rect fill="url(#gridpattern)" stroke-width="0" y="0" x="0" height="100%" width="100%"/>
  </g>
 </g>
 <g>
  <title>Layer 1</title>
  <line stroke-linecap="undefined" stroke-linejoin="undefined" id="svg_17" y2="110.843166" x2="69.127445" y1="5.744949" x1="69.127445" fill-opacity="null" stroke-opacity="null" stroke-width="10" stroke="#3C648E" fill="none"/>
  <line stroke-linecap="undefined" stroke-linejoin="undefined" id="svg_18" y2="108.490221" x2="135.402067" y1="108.490221" x1="5.990084" fill-opacity="null" stroke-opacity="null" stroke-width="10" stroke="#3C648E" fill="none"/>
  <line stroke-linecap="undefined" stroke-linejoin="undefined" id="svg_19" y2="135.156932" x2="118.931451" y1="135.156932" x1="22.460699" fill-opacity="null" stroke-opacity="null" stroke-width="10" stroke="#3C648E" fill="none"/>
  <line stroke-linecap="undefined" stroke-linejoin="undefined" id="svg_20" y2="160.255014" x2="94.617684" y1="160.255014" x1="46.774466" fill-opacity="null" stroke-opacity="null" stroke-width="10" stroke="#3C648E" fill="none"/>
 </g>
</svg>
