<svg width="250" height="250" xmlns="http://www.w3.org/2000/svg">
 <!-- Created with Method Draw - http://github.com/duopixel/Method-Draw/ -->
 <g>
  <title>background</title>
  <rect fill="none" id="canvas_background" height="250" width="250" y="-1" x="-1"/>
  <g display="none" overflow="visible" y="0" x="0" height="100%" width="100%" id="canvasGrid">
   <rect fill="url(#gridpattern)" stroke-width="0" y="0" x="0" height="100%" width="100%"/>
  </g>
 </g>
 <g>
  <title>Layer 1</title>
  <ellipse ry="110" rx="110" id="svg_1" cy="120" cx="120" stroke-width="10" stroke="#1E2939" fill="none"/>
  <text transform="matrix(2.78159, 0, 0, 3.58386, -187.073, -189.082)" xml:space="preserve" text-anchor="start" font-family="Helvetica, Arial, sans-serif" font-size="42" id="svg_3" y="100" x="80" fill-opacity="null" stroke-opacity="null" stroke="#1E2939" fill="#1E2939">GE</text>
 </g>
</svg>
