<svg width="89" height="208.00000000000003" xmlns="http://www.w3.org/2000/svg">
 <!-- Created with Method Draw - http://github.com/duopixel/Method-Draw/ -->
 <g>
  <title>background</title>
  <rect fill="none" id="canvas_background" height="210" width="91" y="-1" x="-1"/>
  <g display="none" overflow="visible" y="0" x="0" height="100%" width="100%" id="canvasGrid">
   <rect fill="url(#gridpattern)" stroke-width="0" y="0" x="0" height="100%" width="100%"/>
  </g>
 </g>
 <g>
  <title>Layer 1</title>
  <line stroke-linecap="undefined" stroke-linejoin="undefined" id="svg_2" y2="55.75" x2="45.125" y1="4.75" x1="4.125" stroke-width="10" stroke="#1E2939" fill="none"/>
  <line stroke-linecap="undefined" stroke-linejoin="undefined" id="svg_6" y2="5.125" x2="84.75" y1="55.125" x1="44.75" fill-opacity="null" stroke-opacity="null" stroke-width="10" stroke="#1E2939" fill="none"/>
  <line stroke-linecap="undefined" stroke-linejoin="undefined" id="svg_8" y2="54.541667" x2="44.541667" y1="153.541666" x1="44.541667" fill-opacity="null" stroke-opacity="null" stroke-width="10" stroke="#1E2939" fill="none"/>
  <line stroke-linecap="undefined" stroke-linejoin="undefined" id="svg_9" y2="202.459724" x2="84.484733" y1="152.659724" x1="44.684732" stroke-width="10" stroke="#1E2939" fill="none"/>
  <line stroke-linecap="undefined" stroke-linejoin="undefined" id="svg_10" y2="152.416636" x2="44.750005" y1="202.416636" x1="4.750005" fill-opacity="null" stroke-opacity="null" stroke-width="10" stroke="#1E2939" fill="none"/>
 </g>
</svg>
