<?xml version="1.0" encoding="utf-8"?>
<!-- Generator: Adobe Illustrator 18.1.1, SVG Export Plug-In . SVG Version: 6.00 Build 0)  -->
<svg version="1.1" xmlns="http://www.w3.org/2000/svg" xmlns:xlink="http://www.w3.org/1999/xlink" x="0px" y="0px" width="250px"
	 height="250px" viewBox="0 0 100 100" enable-background="new 0 0 100 100" xml:space="preserve">
<g id="_x37_7_Essential_Icons">
	<path fill="#1E2939" id="Location_Pin" d="M50,8C34.6,8,22,20.4,22,35.7c0,32.6,25.6,54.9,26.7,55.9c0.7,0.6,1.9,0.6,2.6,0
		C52.4,90.6,78,68.2,78,35.7C78,20.4,65.4,8,50,8z M50,87.3c-5.2-5-24-25-24-51.6C26,22.6,36.8,12,50,12c13.2,0,24,10.6,24,23.7
		C74,62.3,55.2,82.3,50,87.3z M50,20c-8.8,0-16,7.2-16,16s7.2,16,16,16c8.8,0,16-7.2,16-16S58.8,20,50,20z M50,48
		c-6.6,0-12-5.4-12-12c0-6.6,5.4-12,12-12s12,5.4,12,12C62,42.6,56.6,48,50,48z" stroke="#1E2939" stroke-width="3"/>
</g>
<g id="Guides">
</g>
<g id="Info">
	<g id="BORDER">
		<path fill="#1E2939" d="M1644-370v1684H-140V-370H1644 M1652-378H-148v1700h1800V-378L1652-378z"/>
	</g>
</g>
</svg>
